// Jest Snapshot v1, https://goo.gl/fbAQLP

exports[`Smoke test (Snapshot test Should ChosenCard render 1`] = `
<DocumentFragment>
  <div
    class="wrapper"
  >
    <div
      class="imageWrap"
    >
      <img
        alt="name"
        class="img"
        src="url"
      />
    </div>
    <p
      class="caption"
    >
      name
    </p>
    <div
      class="infoWrap"
    >
      <span
        class="info"
      >
        your price: price $
      </span>
      <span
        class="desc"
      >
         color: color
      </span>
    </div>
    <p
      class="info"
    >
      Number: count
    </p>
    <button
      class="btn"
    >
      Delete Laps
    </button>
  </div>
</DocumentFragment>
`;

exports[`Smoke test (Snapshot test Should Modal render 1`] = `
<DocumentFragment>
  <div
    class="wrapper"
  >
    <div
      class="imageWrap"
    >
      <img
        alt="name"
        class="img"
        src="url"
      />
    </div>
    <p
      class="caption"
    >
      name
    </p>
    <div
      class="infoWrap"
    >
      <span
        class="info"
      >
        your price: price $
      </span>
      <span
        class="desc"
      >
         color: color
      </span>
    </div>
    <p
      class="info"
    >
      Number: count
    </p>
    <button
      class="btn"
    >
      Delete Laps
    </button>
  </div>
</DocumentFragment>
`;
