// Jest Snapshot v1, https://goo.gl/fbAQLP

exports[`Button click Should Button click 1`] = `
<DocumentFragment>
  <button
    class="btn"
  >
    Click
  </button>
</DocumentFragment>
`;

exports[`Button click Should Button render 1`] = `
<DocumentFragment>
  <button
    class="btn"
  >
    Click
  </button>
</DocumentFragment>
`;

exports[`Button click Should onClick  Button render 1`] = `
<DocumentFragment>
  <button
    class="btn"
  >
    Click
  </button>
</DocumentFragment>
`;

exports[`Button click Should onClick triggering on Button click 1`] = `
<DocumentFragment>
  <button
    class="btn"
  >
    Click
  </button>
</DocumentFragment>
`;

exports[`Button click Should onClick triggering on Button render 1`] = `
<DocumentFragment>
  <button
    class="btn"
  >
    Click
  </button>
</DocumentFragment>
`;

exports[`Smoke test (Snapshot test Should But render 1`] = `
<DocumentFragment>
  <button
    class="btn"
  >
    Click
  </button>
</DocumentFragment>
`;

exports[`Smoke test (Snapshot test Should Button render 1`] = `
<DocumentFragment>
  <button
    class="btn"
  >
    Click
  </button>
</DocumentFragment>
`;

exports[`Smoke test (Snapshot test Should Button render 2`] = `
<DocumentFragment>
  <button
    class="btn"
  >
    Click
  </button>
</DocumentFragment>
`;

exports[`Smoke test (Snapshot test Should Button render 3`] = `
<DocumentFragment>
  <button
    class="btn"
  >
    Click
  </button>
</DocumentFragment>
`;

exports[`Smoke test (Snapshot test Should Button render 4`] = `
<DocumentFragment>
  <button
    class="btn"
  >
    Click
  </button>
</DocumentFragment>
`;

exports[`Smoke test (Snapshot test Should Modal render 1`] = `
<DocumentFragment>
  <button
    class="btn"
  >
    Click
  </button>
</DocumentFragment>
`;

exports[`Z Should Button render 1`] = `
<DocumentFragment>
  <button
    class="btn"
  >
    Click
  </button>
</DocumentFragment>
`;

exports[`Z Should Button render 2`] = `
<DocumentFragment>
  <button
    class="btn"
  >
    Click
  </button>
</DocumentFragment>
`;
