// Jest Snapshot v1, https://goo.gl/fbAQLP

exports[`Smoke test (Snapshot test Should Forms render 1`] = `
<DocumentFragment>
  <form
    action="#"
    class="form"
  >
    <h2>
      Контактні дані:
    </h2>
    <div
      class="inputContainer"
    >
      <label
        class="labelText"
        for="name"
      >
        Ім'я:
      </label>
      <input
        class="inputText"
        id="name"
        name="name"
        type="text"
        value=""
      />
    </div>
    <div
      class="inputContainer"
    >
      <label
        class="labelText"
        for="secondName"
      >
        Призвіще:
      </label>
      <input
        class="inputText"
        id="secondName"
        name="secondName"
        type="text"
        value=""
      />
    </div>
    <div
      class="inputContainer"
    >
      <label
        class="labelText"
        for="age"
      >
        Вік:
      </label>
      <input
        class="inputText"
        id="age"
        name="age"
        type="number"
        value=""
      />
    </div>
    <div
      class="inputContainer"
    >
      <label
        class="labelText"
        for="adress"
      >
        Адреса:
      </label>
      <input
        class="inputText"
        id="adress"
        name="adress"
        type="text"
        value=""
      />
    </div>
    <div
      class="inputContainer"
    >
      <label
        class="labelText"
        for="name"
      >
        Телефон:
      </label>
      <input
        class="inputText"
        id="name"
        name="tel"
        type="number"
        value=""
      />
    </div>
    <button
      class="btnSubmit"
      type="submit"
    >
      Checkout
    </button>
  </form>
</DocumentFragment>
`;
